project2_files/trace.vcd
$version Generated by VerilatedVcd $end
$date Tue Feb 22 15:14:59 2022 $end
$timescale 1ps $end

 $scope module TOP $end
  $var wire  1 p! clk $end
  $var wire  1 q! reset $end
  $scope module project2_frame $end
   $var wire 148 J AGEX_latch_out [147:0] $end
   $var wire 244 B DE_latch_out [243:0] $end
   $var wire 132 = FE_latch_out [131:0] $end
   $var wire 148 O MEM_latch_out [147:0] $end
   $var wire  1 p! clk $end
   $var wire 32 # cycle_count [31:0] $end
   $var wire 10 W from_AGEX_to_DE [9:0] $end
   $var wire 33 U from_AGEX_to_FE [32:0] $end
   $var wire  1 T from_DE_to_FE [0:0] $end
   $var wire  1 W" from_MEM_to_AGEX [0:0] $end
   $var wire  9 X from_MEM_to_DE [8:0] $end
   $var wire  1 U" from_MEM_to_FE [0:0] $end
   $var wire  1 X" from_WB_to_AGEX [0:0] $end
   $var wire 52 Y from_WB_to_DE [51:0] $end
   $var wire  1 V" from_WB_to_FE [0:0] $end
   $var wire  1 Y" from_WB_to_MEM [0:0] $end
   $var wire  1 q! reset $end
   $scope module my_AGEX_stage $end
    $var wire 148 J AGEX_latch [147:0] $end
    $var wire 148 [ AGEX_latch_contents [147:0] $end
    $var wire 148 J AGEX_latch_out [147:0] $end
    $var wire 32 a PC_AGEX [31:0] $end
    $var wire 32 m aluout_AGEX [31:0] $end
    $var wire  1 e br_cond_AGEX $end
    $var wire  4 f bus_canary_AGEX [3:0] $end
    $var wire  1 p! clk $end
    $var wire 10 W from_AGEX_to_DE [9:0] $end
    $var wire 33 U from_AGEX_to_FE [32:0] $end
    $var wire 244 B from_DE_latch [243:0] $end
    $var wire  1 W" from_MEM_to_AGEX [0:0] $end
    $var wire  1 X" from_WB_to_AGEX [0:0] $end
    $var wire 32 ` inst_AGEX [31:0] $end
    $var wire 32 b inst_count_AGEX [31:0] $end
    $var wire 32 n newpc_AGEX [31:0] $end
    $var wire  6 d op_I_AGEX [5:0] $end
    $var wire 32 c pcplus_AGEX [31:0] $end
    $var wire  5 j rd_AGEX [4:0] $end
    $var wire 32 g regval1_AGEX [31:0] $end
    $var wire 32 h regval2_AGEX [31:0] $end
    $var wire  1 q! reset $end
    $var wire 32 g s_regval1_AGEX [31:0] $end
    $var wire 32 h s_regval2_AGEX [31:0] $end
    $var wire 32 i sxt_imm_AGEX [31:0] $end
    $var wire  4 l type_I_AGEX [3:0] $end
    $var wire  1 k wr_reg_AGEX $end
   $upscope $end
   $scope module my_DE_stage $end
    $var wire 244 B DE_latch [243:0] $end
    $var wire 244 F! DE_latch_contents [243:0] $end
    $var wire 244 B DE_latch_out [243:0] $end
    $var wire  3 t F3_DE [2:0] $end
    $var wire  7 u F7_DE [6:0] $end
    $var wire 32 p PC_DE [31:0] $end
    $var wire  1 .! br_cond_AGEX_in_DE $end
    $var wire  4 s bus_canary_DE [3:0] $end
    $var wire  1 p! clk $end
    $var wire 32 - csr_regs[0] [31:0] $end
    $var wire 32 7 csr_regs[10] [31:0] $end
    $var wire 32 8 csr_regs[11] [31:0] $end
    $var wire 32 9 csr_regs[12] [31:0] $end
    $var wire 32 : csr_regs[13] [31:0] $end
    $var wire 32 ; csr_regs[14] [31:0] $end
    $var wire 32 < csr_regs[15] [31:0] $end
    $var wire 32 . csr_regs[1] [31:0] $end
    $var wire 32 / csr_regs[2] [31:0] $end
    $var wire 32 0 csr_regs[3] [31:0] $end
    $var wire 32 1 csr_regs[4] [31:0] $end
    $var wire 32 2 csr_regs[5] [31:0] $end
    $var wire 32 3 csr_regs[6] [31:0] $end
    $var wire 32 4 csr_regs[7] [31:0] $end
    $var wire 32 5 csr_regs[8] [31:0] $end
    $var wire 32 6 csr_regs[9] [31:0] $end
    $var wire 10 W from_AGEX_to_DE [9:0] $end
    $var wire  1 T from_DE_to_FE [0:0] $end
    $var wire 132 = from_FE_latch [131:0] $end
    $var wire  9 X from_MEM_to_DE [8:0] $end
    $var wire 52 Y from_WB_to_DE [51:0] $end
    $var wire 32 o inst_DE [31:0] $end
    $var wire 32 r inst_count_DE [31:0] $end
    $var wire  7 v op_DE [6:0] $end
    $var wire  6 w op_I_DE [5:0] $end
    $var wire 32 q pcplus_DE [31:0] $end
    $var wire  1 T pipeline_stall_DE $end
    $var wire  5 (! rd_AGEX [4:0] $end
    $var wire  5 ~ rd_DE [4:0] $end
    $var wire  5 )! rd_MEM [4:0] $end
    $var wire  5 *! rd_WB [4:0] $end
    $var wire 32 P! regs[0] [31:0] $end
    $var wire 32 Z! regs[10] [31:0] $end
    $var wire 32 [! regs[11] [31:0] $end
    $var wire 32 \! regs[12] [31:0] $end
    $var wire 32 ]! regs[13] [31:0] $end
    $var wire 32 ^! regs[14] [31:0] $end
    $var wire 32 _! regs[15] [31:0] $end
    $var wire 32 `! regs[16] [31:0] $end
    $var wire 32 a! regs[17] [31:0] $end
    $var wire 32 b! regs[18] [31:0] $end
    $var wire 32 c! regs[19] [31:0] $end
    $var wire 32 Q! regs[1] [31:0] $end
    $var wire 32 d! regs[20] [31:0] $end
    $var wire 32 e! regs[21] [31:0] $end
    $var wire 32 f! regs[22] [31:0] $end
    $var wire 32 g! regs[23] [31:0] $end
    $var wire 32 h! regs[24] [31:0] $end
    $var wire 32 i! regs[25] [31:0] $end
    $var wire 32 j! regs[26] [31:0] $end
    $var wire 32 k! regs[27] [31:0] $end
    $var wire 32 l! regs[28] [31:0] $end
    $var wire 32 m! regs[29] [31:0] $end
    $var wire 32 R! regs[2] [31:0] $end
    $var wire 32 n! regs[30] [31:0] $end
    $var wire 32 o! regs[31] [31:0] $end
    $var wire 32 S! regs[3] [31:0] $end
    $var wire 32 T! regs[4] [31:0] $end
    $var wire 32 U! regs[5] [31:0] $end
    $var wire 32 V! regs[6] [31:0] $end
    $var wire 32 W! regs[7] [31:0] $end
    $var wire 32 X! regs[8] [31:0] $end
    $var wire 32 Y! regs[9] [31:0] $end
    $var wire 32 N! regval1_DE [31:0] $end
    $var wire 32 O! regval2_DE [31:0] $end
    $var wire 32 %! regval_WB [31:0] $end
    $var wire  1 q! reset $end
    $var wire  5 | rs1_DE [4:0] $end
    $var wire  1 "! rs1_read_DE $end
    $var wire  5 } rs2_DE [4:0] $end
    $var wire  1 #! rs2_read_DE $end
    $var wire 32 z sxt_imm_DE [31:0] $end
    $var wire  4 +! type_I_AGEX [3:0] $end
    $var wire  4 x type_I_DE [3:0] $end
    $var wire  4 ,! type_I_MEM [3:0] $end
    $var wire  4 -! type_I_WB [3:0] $end
    $var wire  3 y type_immediate_DE [2:0] $end
    $var wire  4 &! wcsrno_WB [3:0] $end
    $var wire  1 '! wr_csr_WB $end
    $var wire  1 !! wr_reg_DE $end
    $var wire  1 { wr_reg_WB $end
    $var wire  5 $! wregno_WB [4:0] $end
    $scope module unnamedblk1 $end
     $var wire  1 /! is_type_I_AGEX_Valid $end
     $var wire  1 0! is_type_I_MEM_Valid $end
     $var wire  1 1! is_type_I_WB_Valid $end
    $upscope $end
   $upscope $end
   $scope module my_FE_stage $end
    $var wire 132 = FE_latch [131:0] $end
    $var wire 132 ' FE_latch_contents [131:0] $end
    $var wire 132 = FE_latch_out [131:0] $end
    $var wire 32 $ PC_FE_latch [31:0] $end
    $var wire  1 2! br_cond_AGEX_in_FE $end
    $var wire  1 p! clk $end
    $var wire 33 U from_AGEX_to_FE [32:0] $end
    $var wire  1 T from_DE_to_FE [0:0] $end
    $var wire  1 U" from_MEM_to_FE [0:0] $end
    $var wire  1 V" from_WB_to_FE [0:0] $end
    $var wire 32 % inst_FE [31:0] $end
    $var wire 32 Z" inst_count_AGEX [31:0] $end
    $var wire 32 , inst_count_FE [31:0] $end
    $var wire 32 3! newpc_AGEX [31:0] $end
    $var wire 32 & pcplus_FE [31:0] $end
    $var wire  1 q! reset $end
    $var wire  1 T stall_pipe_FE $end
   $upscope $end
   $scope module my_MEM_stage $end
    $var wire 148 O MEM_latch [147:0] $end
    $var wire 148 J MEM_latch_contents [147:0] $end
    $var wire 148 O MEM_latch_out [147:0] $end
    $var wire 32 7! PC_MEM [31:0] $end
    $var wire 32 9! aluout_MEM [31:0] $end
    $var wire  4 8! bus_canary_MEM [3:0] $end
    $var wire  1 p! clk $end
    $var wire 148 J from_AGEX_latch [147:0] $end
    $var wire  1 W" from_MEM_to_AGEX [0:0] $end
    $var wire  9 X from_MEM_to_DE [8:0] $end
    $var wire  1 U" from_MEM_to_FE [0:0] $end
    $var wire  1 Y" from_WB_to_MEM [0:0] $end
    $var wire 32 6! inst_MEM [31:0] $end
    $var wire 32 5! inst_count_MEM [31:0] $end
    $var wire 32 [" memaddr_MEM [31:0] $end
    $var wire  6 4! op_I_MEM [5:0] $end
    $var wire  5 :! rd_MEM [4:0] $end
    $var wire 32 r! rd_val_MEM [31:0] $end
    $var wire  1 q! reset $end
    $var wire  4 <! type_I_MEM [3:0] $end
    $var wire  1 ]" wr_mem_MEM $end
    $var wire  1 ;! wr_reg_MEM $end
    $var wire 32 \" wr_val_MEM [31:0] $end
   $upscope $end
   $scope module my_WB_stage $end
    $var wire 32 ?! PC_WB [31:0] $end
    $var wire 32 5" WB_counters[0] [31:0] $end
    $var wire 32 ?" WB_counters[10] [31:0] $end
    $var wire 32 @" WB_counters[11] [31:0] $end
    $var wire 32 A" WB_counters[12] [31:0] $end
    $var wire 32 B" WB_counters[13] [31:0] $end
    $var wire 32 C" WB_counters[14] [31:0] $end
    $var wire 32 D" WB_counters[15] [31:0] $end
    $var wire 32 E" WB_counters[16] [31:0] $end
    $var wire 32 F" WB_counters[17] [31:0] $end
    $var wire 32 G" WB_counters[18] [31:0] $end
    $var wire 32 H" WB_counters[19] [31:0] $end
    $var wire 32 6" WB_counters[1] [31:0] $end
    $var wire 32 I" WB_counters[20] [31:0] $end
    $var wire 32 J" WB_counters[21] [31:0] $end
    $var wire 32 K" WB_counters[22] [31:0] $end
    $var wire 32 L" WB_counters[23] [31:0] $end
    $var wire 32 M" WB_counters[24] [31:0] $end
    $var wire 32 N" WB_counters[25] [31:0] $end
    $var wire 32 O" WB_counters[26] [31:0] $end
    $var wire 32 P" WB_counters[27] [31:0] $end
    $var wire 32 Q" WB_counters[28] [31:0] $end
    $var wire 32 R" WB_counters[29] [31:0] $end
    $var wire 32 7" WB_counters[2] [31:0] $end
    $var wire 32 S" WB_counters[30] [31:0] $end
    $var wire 32 T" WB_counters[31] [31:0] $end
    $var wire 32 8" WB_counters[3] [31:0] $end
    $var wire 32 9" WB_counters[4] [31:0] $end
    $var wire 32 :" WB_counters[5] [31:0] $end
    $var wire 32 ;" WB_counters[6] [31:0] $end
    $var wire 32 <" WB_counters[7] [31:0] $end
    $var wire 32 =" WB_counters[8] [31:0] $end
    $var wire 32 >" WB_counters[9] [31:0] $end
    $var wire 32 E! aluout_WB [31:0] $end
    $var wire  4 A! bus_canary_WB [3:0] $end
    $var wire  1 p! clk $end
    $var wire 148 O from_MEM_latch [147:0] $end
    $var wire  1 X" from_WB_to_AGEX [0:0] $end
    $var wire 52 Y from_WB_to_DE [51:0] $end
    $var wire  1 V" from_WB_to_FE [0:0] $end
    $var wire  1 Y" from_WB_to_MEM [0:0] $end
    $var wire 32 >! inst_WB [31:0] $end
    $var wire 32 @! inst_count_WB [31:0] $end
    $var wire 32 s! last_WB_value[0] [31:0] $end
    $var wire 32 }! last_WB_value[10] [31:0] $end
    $var wire 32 ~! last_WB_value[11] [31:0] $end
    $var wire 32 !" last_WB_value[12] [31:0] $end
    $var wire 32 "" last_WB_value[13] [31:0] $end
    $var wire 32 #" last_WB_value[14] [31:0] $end
    $var wire 32 $" last_WB_value[15] [31:0] $end
    $var wire 32 %" last_WB_value[16] [31:0] $end
    $var wire 32 &" last_WB_value[17] [31:0] $end
    $var wire 32 '" last_WB_value[18] [31:0] $end
    $var wire 32 (" last_WB_value[19] [31:0] $end
    $var wire 32 t! last_WB_value[1] [31:0] $end
    $var wire 32 )" last_WB_value[20] [31:0] $end
    $var wire 32 *" last_WB_value[21] [31:0] $end
    $var wire 32 +" last_WB_value[22] [31:0] $end
    $var wire 32 ," last_WB_value[23] [31:0] $end
    $var wire 32 -" last_WB_value[24] [31:0] $end
    $var wire 32 ." last_WB_value[25] [31:0] $end
    $var wire 32 /" last_WB_value[26] [31:0] $end
    $var wire 32 0" last_WB_value[27] [31:0] $end
    $var wire 32 1" last_WB_value[28] [31:0] $end
    $var wire 32 2" last_WB_value[29] [31:0] $end
    $var wire 32 u! last_WB_value[2] [31:0] $end
    $var wire 32 3" last_WB_value[30] [31:0] $end
    $var wire 32 4" last_WB_value[31] [31:0] $end
    $var wire 32 v! last_WB_value[3] [31:0] $end
    $var wire 32 w! last_WB_value[4] [31:0] $end
    $var wire 32 x! last_WB_value[5] [31:0] $end
    $var wire 32 y! last_WB_value[6] [31:0] $end
    $var wire 32 z! last_WB_value[7] [31:0] $end
    $var wire 32 {! last_WB_value[8] [31:0] $end
    $var wire 32 |! last_WB_value[9] [31:0] $end
    $var wire  6 =! op_I_WB [5:0] $end
    $var wire  5 D! rd_WB [4:0] $end
    $var wire 32 E! regval_WB [31:0] $end
    $var wire  1 q! reset $end
    $var wire  4 B! type_I_WB [3:0] $end
    $var wire  4 ^" wcsrno_WB [3:0] $end
    $var wire  1 _" wr_csr_WB $end
    $var wire  1 C! wr_reg_WB $end
    $var wire  5 D! wregno_WB [4:0] $end
   $upscope $end
  $upscope $end
 $upscope $end
$enddefinitions $end


#0
b00000000000000000000000000000000 #
b00000000000000000000000000000000 $
b00000000000000000000000000000000 %
b00000000000000000000000000000100 &
b000000000000000000000000000000000000000000000000000000000000000000000000000000000000000000000100000000000000000000000000000000001111 '
b00000000000000000000000000000000 ,
b00000000000000000000000000000000 -
b00000000000000000000000000000000 .
b00000000000000000000000000000000 /
b00000000000000000000000000000000 0
b00000000000000000000000000000000 1
b00000000000000000000000000000000 2
b00000000000000000000000000000000 3
b00000000000000000000000000000000 4
b00000000000000000000000000000000 5
b00000000000000000000000000000000 6
b00000000000000000000000000000000 7
b00000000000000000000000000000000 8
b00000000000000000000000000000000 9
b00000000000000000000000000000000 :
b00000000000000000000000000000000 ;
b00000000000000000000000000000000 <
b000000000000000000000000000000000000000000000000000000000000000000000000000000000000000000000000000000000000000000000000000000000000 =
b0000000000000000000000000000000000000000000000000000000000000000000000000000000000000000000000000000000000000000000000000000000000000000000000000000000000000000000000000000000000000000000000000000000000000000000000000000000000000000000000000000 B
b0000000000000000000000000000000000000000000000000000000000000000000000000000000000000000000000000000000000000000000000000000000000000000000000000000 J
b0000000000000000000000000000000000000000000000000000000000000000000000000000000000000000000000000000000000000000000000000000000000000000000000000000 O
0T
b000000000000000000000000000000000 U
b0000000000 W
b000000000 X
b0000000000000000000000000000000000000000000000000000 Y
b0000000000000000000000000000000000000000000000000000000000000000000000000000000000000000000000000000000000000000000000000000000000000000000000000000 [
b00000000000000000000000000000000 `
b00000000000000000000000000000000 a
b00000000000000000000000000000000 b
b00000000000000000000000000000000 c
b000000 d
0e
b0000 f
b00000000000000000000000000000000 g
b00000000000000000000000000000000 h
b00000000000000000000000000000000 i
b00000 j
0k
b0000 l
b00000000000000000000000000000000 m
b00000000000000000000000000000000 n
b00000000000000000000000000000000 o
b00000000000000000000000000000000 p
b00000000000000000000000000000000 q
b00000000000000000000000000000000 r
b0000 s
b000 t
b0000000 u
b0000000 v
b100101 w
b0010 x
b001 y
b00000000000000000000000000000000 z
0{
b00000 |
b00000 }
b00000 ~
0!!
1"!
0#!
b00000 $!
b00000000000000000000000000000000 %!
b0000 &!
0'!
b00000 (!
b00000 )!
b00000 *!
b0000 +!
b0000 ,!
b0000 -!
0.!
0/!
00!
01!
02!
b00000000000000000000000000000000 3!
b000000 4!
b00000000000000000000000000000000 5!
b00000000000000000000000000000000 6!
b00000000000000000000000000000000 7!
b0000 8!
b00000000000000000000000000000000 9!
b00000 :!
0;!
b0000 <!
b000000 =!
b00000000000000000000000000000000 >!
b00000000000000000000000000000000 ?!
b00000000000000000000000000000000 @!
b0000 A!
b0000 B!
0C!
b00000 D!
b00000000000000000000000000000000 E!
b0000000000000000000000000000000000000000000000000000000000000000000000000000000000000000000000001001010000000000000000000000000000000000000000000000000000000000000000000000000000000000000000000000000000000000000000000000000000000000000000100000 F!
b00000000000000000000000000000000 N!
b00000000000000000000000000000000 O!
b00000000000000000000000000000000 P!
b00000000000000000000000000000000 Q!
b00000000000000000000000000000000 R!
b00000000000000000000000000000000 S!
b00000000000000000000000000000000 T!
b00000000000000000000000000000000 U!
b00000000000000000000000000000000 V!
b00000000000000000000000000000000 W!
b00000000000000000000000000000000 X!
b00000000000000000000000000000000 Y!
b00000000000000000000000000000000 Z!
b00000000000000000000000000000000 [!
b00000000000000000000000000000000 \!
b00000000000000000000000000000000 ]!
b00000000000000000000000000000000 ^!
b00000000000000000000000000000000 _!
b00000000000000000000000000000000 `!
b00000000000000000000000000000000 a!
b00000000000000000000000000000000 b!
b00000000000000000000000000000000 c!
b00000000000000000000000000000000 d!
b00000000000000000000000000000000 e!
b00000000000000000000000000000000 f!
b00000000000000000000000000000000 g!
b00000000000000000000000000000000 h!
b00000000000000000000000000000000 i!
b00000000000000000000000000000000 j!
b00000000000000000000000000000000 k!
b00000000000000000000000000000000 l!
b00000000000000000000000000000000 m!
b00000000000000000000000000000000 n!
b00000000000000000000000000000000 o!
0p!
0q!
b00000000000000000000000000000000 r!
b00000000000000000000000000000000 s!
b00000000000000000000000000000000 t!
b00000000000000000000000000000000 u!
b00000000000000000000000000000000 v!
b00000000000000000000000000000000 w!
b00000000000000000000000000000000 x!
b00000000000000000000000000000000 y!
b00000000000000000000000000000000 z!
b00000000000000000000000000000000 {!
b00000000000000000000000000000000 |!
b00000000000000000000000000000000 }!
b00000000000000000000000000000000 ~!
b00000000000000000000000000000000 !"
b00000000000000000000000000000000 ""
b00000000000000000000000000000000 #"
b00000000000000000000000000000000 $"
b00000000000000000000000000000000 %"
b00000000000000000000000000000000 &"
b00000000000000000000000000000000 '"
b00000000000000000000000000000000 ("
b00000000000000000000000000000000 )"
b00000000000000000000000000000000 *"
b00000000000000000000000000000000 +"
b00000000000000000000000000000000 ,"
b00000000000000000000000000000000 -"
b00000000000000000000000000000000 ."
b00000000000000000000000000000000 /"
b00000000000000000000000000000000 0"
b00000000000000000000000000000000 1"
b00000000000000000000000000000000 2"
b00000000000000000000000000000000 3"
b00000000000000000000000000000000 4"
b00000000000000000000000000000000 5"
b00000000000000000000000000000000 6"
b00000000000000000000000000000000 7"
b00000000000000000000000000000000 8"
b00000000000000000000000000000000 9"
b00000000000000000000000000000000 :"
b00000000000000000000000000000000 ;"
b00000000000000000000000000000000 <"
b00000000000000000000000000000000 ="
b00000000000000000000000000000000 >"
b00000000000000000000000000000000 ?"
b00000000000000000000000000000000 @"
b00000000000000000000000000000000 A"
b00000000000000000000000000000000 B"
b00000000000000000000000000000000 C"
b00000000000000000000000000000000 D"
b00000000000000000000000000000000 E"
b00000000000000000000000000000000 F"
b00000000000000000000000000000000 G"
b00000000000000000000000000000000 H"
b00000000000000000000000000000000 I"
b00000000000000000000000000000000 J"
b00000000000000000000000000000000 K"
b00000000000000000000000000000000 L"
b00000000000000000000000000000000 M"
b00000000000000000000000000000000 N"
b00000000000000000000000000000000 O"
b00000000000000000000000000000000 P"
b00000000000000000000000000000000 Q"
b00000000000000000000000000000000 R"
b00000000000000000000000000000000 S"
b00000000000000000000000000000000 T"
0U"
0V"
0W"
0X"
0Y"
b00000000000000000000000000000000 Z"
b00000000000000000000000000000000 ["
b00000000000000000000000000000000 \"
0]"
b0000 ^"
0_"
#1
b00000000000000000000000000000001 #
b00000000000000000000000000000100 $
b00000000000000000000000000001000 &
b000000000000000000000000000000000000000000000000000000000000010000000000000000000000000000001000000000000000000000000000000000011111 '
b00000000000000000000000000000001 ,
b000000000000000000000000000000000000000000000000000000000000000000000000000000000000000000000100000000000000000000000000000000001111 =
b00000000000000000000000000000100 q
b1111 s
b0000000000000000000000000000000000000000000000000000000000000000000000000000000000000000000001001001010000000000000000000000000000000000000000000000000000000000000000000000000000000000000000000000000000000000000000000000000000000000000000101111 F!
1p!
#2
b00000000000000000000000000000000 #
b00000000000000000000001000000000 $
b00000000000000000000000010010011 %
b00000000000000000000001000000100 &
b000000000000000000000000100100110000000000000000000000100000000000000000000000000000001000000100000000000000000000000000000000011111 '
b000000000000000000000000000000000000000000000000000000000000000000000000000000000000000000000000000000000000000000000000000000000000 =
b00000000000000000000000000000000 q
b0000 s
b0000000000000000000000000000000000000000000000000000000000000000000000000000000000000000000000001001010000000000000000000000000000000000000000000000000000000000000000000000000000000000000000000000000000000000000000000000000000000000000000100000 F!
0p!
1q!
#3
1p!
#4
0p!
#5
1p!
#6
0p!
#7
1p!
#8
0p!
#9
1p!
#10
#11
0p!
#12
1p!
#13
0p!
#14
1p!
#15
0p!
#16
1p!
#17
0p!
#18
1p!
#19
0p!
#20
#21
1p!
#22
0p!
#23
1p!
#24
0p!
#25
1p!
#26
0p!
#27
1p!
#28
0p!
#29
1p!
#30
#31
0p!
#32
1p!
#33
0p!
#34
1p!
#35
0p!
#36
1p!
#37
0p!
#38
1p!
#39
0p!
#40
#41
1p!
#42
0p!
#43
1p!
#44
0p!
#45
1p!
#46
0p!
#47
1p!
#48
0p!
#49
1p!
#50
#51
0p!
#52
1p!
#53
0p!
#54
1p!
#55
0p!
#56
1p!
#57
0p!
#58
1p!
#59
0p!
#60
#61
1p!
#62
0p!
#63
1p!
#64
0p!
#65
1p!
#66
0p!
#67
1p!
#68
0p!
#69
1p!
#70
#71
0p!
#72
1p!
#73
0p!
#74
1p!
#75
0p!
#76
1p!
#77
0p!
#78
1p!
#79
0p!
#80
#81
1p!
#82
0p!
#83
1p!
#84
0p!
#85
1p!
#86
0p!
#87
1p!
#88
0p!
#89
1p!
#90
#91
0p!
#92
1p!
#93
0p!
#94
1p!
#95
0p!
#96
1p!
#97
0p!
#98
1p!
#99
0p!
#100
0q!
#101
b00000000000000000000000000000001 #
b00000000000000000000001000000100 $
b00000000000000000000000100010011 %
b00000000000000000000001000001000 &
b000000000000000000000001000100110000000000000000000000100000010000000000000000000000001000001000000000000000000000000000000000101111 '
b00000000000000000000000000000010 ,
b000000000000000000000000100100110000000000000000000000100000000000000000000000000000001000000100000000000000000000000000000000011111 =
b00000000000000000000000010010011 o
b00000000000000000000001000000000 p
b00000000000000000000001000000100 q
b00000000000000000000000000000001 r
b1111 s
b0010011 v
b001100 w
b00001 ~
1!!
b0000000000000000000000001001001100000000000000000000001000000000000000000000000000000010000001000011000000000000000000000000000000000100000000000000000000000000000000000000000000000000000000000000000000000000000000000000000000000000001100101111 F!
1p!
#102
0p!
#103
b00000000000000000000000000000010 #
b00000000000000000000001000001000 $
b00000000000000000000000110010011 %
b00000000000000000000001000001100 &
b000000000000000000000001100100110000000000000000000000100000100000000000000000000000001000001100000000000000000000000000000000111111 '
b00000000000000000000000000000011 ,
b000000000000000000000001000100110000000000000000000000100000010000000000000000000000001000001000000000000000000000000000000000101111 =
b0000000000000000000000001001001100000000000000000000001000000000000000000000000000000010000001000011000000000000000000000000000000000100000000000000000000000000000000000000000000000000000000000000000000000000000000000000000000000000001100101111 B
b0000100100 W
b0000000000000000000000001001001100000000000000000000001000000000001100000000000000000000000000000000010000000000000000000000000000000000001100101111 [
b00000000000000000000000010010011 `
b00000000000000000000001000000000 a
b00000000000000000000000000000001 b
b00000000000000000000001000000100 c
b001100 d
b1111 f
b00001 j
1k
b0010 l
b00000000000000000000000100010011 o
b00000000000000000000001000000100 p
b00000000000000000000001000001000 q
b00000000000000000000000000000010 r
b00010 ~
b00001 (!
b0010 +!
1/!
b0000000000000000000000010001001100000000000000000000001000000100000000000000000000000010000010000011000000000000000000000000000000001000000000000000000000000000000000000000000000000000000000000000000000000000000000000000000000000000010100101111 F!
1p!
#104
0p!
#105
b00000000000000000000000000000011 #
b00000000000000000000001000001100 $
b00000000000000000000001000010011 %
b00000000000000000000001000010000 &
b000000000000000000000010000100110000000000000000000000100000110000000000000000000000001000010000000000000000000000000000000001001111 '
b00000000000000000000000000000100 ,
b000000000000000000000001100100110000000000000000000000100000100000000000000000000000001000001100000000000000000000000000000000111111 =
b0000000000000000000000010001001100000000000000000000001000000100000000000000000000000010000010000011000000000000000000000000000000001000000000000000000000000000000000000000000000000000000000000000000000000000000000000000000000000000010100101111 B
b0000000000000000000000001001001100000000000000000000001000000000001100000000000000000000000000000000010000000000000000000000000000000000001100101111 J
b0001000100 W
b000010010 X
b0000000000000000000000010001001100000000000000000000001000000100001100000000000000000000000000000000100000000000000000000000000000000000010100101111 [
b00000000000000000000000100010011 `
b00000000000000000000001000000100 a
b00000000000000000000000000000010 b
b00000000000000000000001000001000 c
b00010 j
b00000000000000000000000110010011 o
b00000000000000000000001000001000 p
b00000000000000000000001000001100 q
b00000000000000000000000000000011 r
b00011 ~
b00010 (!
b00001 )!
b0010 ,!
10!
b001100 4!
b00000000000000000000000000000001 5!
b00000000000000000000000010010011 6!
b00000000000000000000001000000000 7!
b1111 8!
b00001 :!
1;!
b0010 <!
b0000000000000000000000011001001100000000000000000000001000001000000000000000000000000010000011000011000000000000000000000000000000001100000000000000000000000000000000000000000000000000000000000000000000000000000000000000000000000000011100101111 F!
1p!
#106
0p!
#107
b00000000000000000000000000000100 #
b00000000000000000000001000010000 $
b00000000000000000000001010010011 %
b00000000000000000000001000010100 &
b000000000000000000000010100100110000000000000000000000100001000000000000000000000000001000010100000000000000000000000000000001011111 '
b00000000000000000000000000000101 ,
b000000000000000000000010000100110000000000000000000000100000110000000000000000000000001000010000000000000000000000000000000001001111 =
b0000000000000000000000011001001100000000000000000000001000001000000000000000000000000010000011000011000000000000000000000000000000001100000000000000000000000000000000000000000000000000000000000000000000000000000000000000000000000000011100101111 B
b0000000000000000000000010001001100000000000000000000001000000100001100000000000000000000000000000000100000000000000000000000000000000000010100101111 J
b0000000000000000000000001001001100000000000000000000001000000000001100000000000000000000000000000000010000000000000000000000000000000000001100101111 O
b0001100100 W
b000100010 X
b1000010000000000000000000000000000000000000000010010 Y
b0000000000000000000000011001001100000000000000000000001000001000001100000000000000000000000000000000110000000000000000000000000000000000011100101111 [
b00000000000000000000000110010011 `
b00000000000000000000001000001000 a
b00000000000000000000000000000011 b
b00000000000000000000001000001100 c
b00011 j
b00000000000000000000001000010011 o
b00000000000000000000001000001100 p
b00000000000000000000001000010000 q
b00000000000000000000000000000100 r
1{
b00100 ~
b00001 $!
b00011 (!
b00010 )!
b00001 *!
b0010 -!
11!
b00000000000000000000000000000010 5!
b00000000000000000000000100010011 6!
b00000000000000000000001000000100 7!
b00010 :!
b001100 =!
b00000000000000000000000010010011 >!
b00000000000000000000001000000000 ?!
b00000000000000000000000000000001 @!
b1111 A!
b0010 B!
1C!
b00001 D!
b0000000000000000000000100001001100000000000000000000001000001100000000000000000000000010000100000011000000000000000000000000000000010000000000000000000000000000000000000000000000000000000000000000000000000000000000000000000000000000100100101111 F!
1p!
#108
0p!
#109
b00000000000000000000000000000101 #
b00000000000000000000001000010100 $
b00000000000000000000001100010011 %
b00000000000000000000001000011000 &
b000000000000000000000011000100110000000000000000000000100001010000000000000000000000001000011000000000000000000000000000000001101111 '
b00000000000000000000000000000110 ,
b000000000000000000000010100100110000000000000000000000100001000000000000000000000000001000010100000000000000000000000000000001011111 =
b0000000000000000000000100001001100000000000000000000001000001100000000000000000000000010000100000011000000000000000000000000000000010000000000000000000000000000000000000000000000000000000000000000000000000000000000000000000000000000100100101111 B
b0000000000000000000000011001001100000000000000000000001000001000001100000000000000000000000000000000110000000000000000000000000000000000011100101111 J
b0000000000000000000000010001001100000000000000000000001000000100001100000000000000000000000000000000100000000000000000000000000000000000010100101111 O
b0010000100 W
b000110010 X
b1000100000000000000000000000000000000000000000100010 Y
b0000000000000000000000100001001100000000000000000000001000001100001100000000000000000000000000000001000000000000000000000000000000000000100100101111 [
b00000000000000000000001000010011 `
b00000000000000000000001000001100 a
b00000000000000000000000000000100 b
b00000000000000000000001000010000 c
b00100 j
b00000000000000000000001010010011 o
b00000000000000000000001000010000 p
b00000000000000000000001000010100 q
b00000000000000000000000000000101 r
b00101 ~
b00010 $!
b00100 (!
b00011 )!
b00010 *!
b00000000000000000000000000000011 5!
b00000000000000000000000110010011 6!
b00000000000000000000001000001000 7!
b00011 :!
b00000000000000000000000100010011 >!
b00000000000000000000001000000100 ?!
b00000000000000000000000000000010 @!
b00010 D!
b0000000000000000000000101001001100000000000000000000001000010000000000000000000000000010000101000011000000000000000000000000000000010100000000000000000000000000000000000000000000000000000000000000000000000000000000000000000000000000101100101111 F!
1p!
b00000000000000000000001000000000 6"
b00000000000000000000000010010011 7"
b00000000000000000000000000000001 8"
b00000000000000000000000000000001 :"
b00000000000000000000000000001100 ;"
b00000000000000000000000000000001 <"
#110
#111
0p!
