project2_files/trace.vcd
$version Generated by VerilatedVcd $end
$date Sun Feb 27 23:52:34 2022 $end
$timescale 1ps $end

 $scope module TOP $end
  $var wire  1 |! clk $end
  $var wire  1 }! reset $end
  $scope module project2_frame $end
   $var wire 181 J AGEX_latch_out [180:0] $end
   $var wire 244 B DE_latch_out [243:0] $end
   $var wire 132 = FE_latch_out [131:0] $end
   $var wire 148 P MEM_latch_out [147:0] $end
   $var wire  1 |! clk $end
   $var wire 32 # cycle_count [31:0] $end
   $var wire 10 X from_AGEX_to_DE [9:0] $end
   $var wire 33 V from_AGEX_to_FE [32:0] $end
   $var wire  1 U from_DE_to_FE [0:0] $end
   $var wire  1 b" from_MEM_to_AGEX [0:0] $end
   $var wire  9 Y from_MEM_to_DE [8:0] $end
   $var wire  1 `" from_MEM_to_FE [0:0] $end
   $var wire  1 c" from_WB_to_AGEX [0:0] $end
   $var wire 52 Z from_WB_to_DE [51:0] $end
   $var wire  1 a" from_WB_to_FE [0:0] $end
   $var wire  1 d" from_WB_to_MEM [0:0] $end
   $var wire  1 }! reset $end
   $scope module my_AGEX_stage $end
    $var wire 181 J AGEX_latch [180:0] $end
    $var wire 181 \ AGEX_latch_contents [180:0] $end
    $var wire 181 J AGEX_latch_out [180:0] $end
    $var wire 32 c PC_AGEX [31:0] $end
    $var wire 32 o aluout_AGEX [31:0] $end
    $var wire  1 g br_cond_AGEX $end
    $var wire  4 h bus_canary_AGEX [3:0] $end
    $var wire  1 |! clk $end
    $var wire 10 X from_AGEX_to_DE [9:0] $end
    $var wire 33 V from_AGEX_to_FE [32:0] $end
    $var wire 244 B from_DE_latch [243:0] $end
    $var wire  1 b" from_MEM_to_AGEX [0:0] $end
    $var wire  1 c" from_WB_to_AGEX [0:0] $end
    $var wire 32 b inst_AGEX [31:0] $end
    $var wire 32 d inst_count_AGEX [31:0] $end
    $var wire 32 p newpc_AGEX [31:0] $end
    $var wire  6 f op_I_AGEX [5:0] $end
    $var wire 32 e pcplus_AGEX [31:0] $end
    $var wire  5 l rd_AGEX [4:0] $end
    $var wire 32 i regval1_AGEX [31:0] $end
    $var wire 32 j regval2_AGEX [31:0] $end
    $var wire  1 }! reset $end
    $var wire 32 i s_regval1_AGEX [31:0] $end
    $var wire 32 j s_regval2_AGEX [31:0] $end
    $var wire 32 k s_sxt_imm_AGEX [31:0] $end
    $var wire 32 k sxt_imm_AGEX [31:0] $end
    $var wire  4 n type_I_AGEX [3:0] $end
    $var wire  1 q wr_mem_AGEX $end
    $var wire  1 m wr_reg_AGEX $end
    $var wire 32 j wr_val_AGEX [31:0] $end
   $upscope $end
   $scope module my_DE_stage $end
    $var wire 244 B DE_latch [243:0] $end
    $var wire 244 R! DE_latch_contents [243:0] $end
    $var wire 244 B DE_latch_out [243:0] $end
    $var wire  3 w F3_DE [2:0] $end
    $var wire  7 x F7_DE [6:0] $end
    $var wire 32 s PC_DE [31:0] $end
    $var wire  1 1! br_cond_AGEX_in_DE $end
    $var wire  4 v bus_canary_DE [3:0] $end
    $var wire  1 |! clk $end
    $var wire 32 - csr_regs[0] [31:0] $end
    $var wire 32 7 csr_regs[10] [31:0] $end
    $var wire 32 8 csr_regs[11] [31:0] $end
    $var wire 32 9 csr_regs[12] [31:0] $end
    $var wire 32 : csr_regs[13] [31:0] $end
    $var wire 32 ; csr_regs[14] [31:0] $end
    $var wire 32 < csr_regs[15] [31:0] $end
    $var wire 32 . csr_regs[1] [31:0] $end
    $var wire 32 / csr_regs[2] [31:0] $end
    $var wire 32 0 csr_regs[3] [31:0] $end
    $var wire 32 1 csr_regs[4] [31:0] $end
    $var wire 32 2 csr_regs[5] [31:0] $end
    $var wire 32 3 csr_regs[6] [31:0] $end
    $var wire 32 4 csr_regs[7] [31:0] $end
    $var wire 32 5 csr_regs[8] [31:0] $end
    $var wire 32 6 csr_regs[9] [31:0] $end
    $var wire 10 X from_AGEX_to_DE [9:0] $end
    $var wire  1 U from_DE_to_FE [0:0] $end
    $var wire 132 = from_FE_latch [131:0] $end
    $var wire  9 Y from_MEM_to_DE [8:0] $end
    $var wire 52 Z from_WB_to_DE [51:0] $end
    $var wire 32 r inst_DE [31:0] $end
    $var wire 32 u inst_count_DE [31:0] $end
    $var wire  7 y op_DE [6:0] $end
    $var wire  6 z op_I_DE [5:0] $end
    $var wire 32 t pcplus_DE [31:0] $end
    $var wire  1 U pipeline_stall_DE $end
    $var wire  5 +! rd_AGEX [4:0] $end
    $var wire  5 #! rd_DE [4:0] $end
    $var wire  5 ,! rd_MEM [4:0] $end
    $var wire  5 -! rd_WB [4:0] $end
    $var wire 32 \! regs[0] [31:0] $end
    $var wire 32 f! regs[10] [31:0] $end
    $var wire 32 g! regs[11] [31:0] $end
    $var wire 32 h! regs[12] [31:0] $end
    $var wire 32 i! regs[13] [31:0] $end
    $var wire 32 j! regs[14] [31:0] $end
    $var wire 32 k! regs[15] [31:0] $end
    $var wire 32 l! regs[16] [31:0] $end
    $var wire 32 m! regs[17] [31:0] $end
    $var wire 32 n! regs[18] [31:0] $end
    $var wire 32 o! regs[19] [31:0] $end
    $var wire 32 ]! regs[1] [31:0] $end
    $var wire 32 p! regs[20] [31:0] $end
    $var wire 32 q! regs[21] [31:0] $end
    $var wire 32 r! regs[22] [31:0] $end
    $var wire 32 s! regs[23] [31:0] $end
    $var wire 32 t! regs[24] [31:0] $end
    $var wire 32 u! regs[25] [31:0] $end
    $var wire 32 v! regs[26] [31:0] $end
    $var wire 32 w! regs[27] [31:0] $end
    $var wire 32 x! regs[28] [31:0] $end
    $var wire 32 y! regs[29] [31:0] $end
    $var wire 32 ^! regs[2] [31:0] $end
    $var wire 32 z! regs[30] [31:0] $end
    $var wire 32 {! regs[31] [31:0] $end
    $var wire 32 _! regs[3] [31:0] $end
    $var wire 32 `! regs[4] [31:0] $end
    $var wire 32 a! regs[5] [31:0] $end
    $var wire 32 b! regs[6] [31:0] $end
    $var wire 32 c! regs[7] [31:0] $end
    $var wire 32 d! regs[8] [31:0] $end
    $var wire 32 e! regs[9] [31:0] $end
    $var wire 32 Z! regval1_DE [31:0] $end
    $var wire 32 [! regval2_DE [31:0] $end
    $var wire 32 (! regval_WB [31:0] $end
    $var wire  1 }! reset $end
    $var wire  5 !! rs1_DE [4:0] $end
    $var wire  1 %! rs1_read_DE $end
    $var wire  5 "! rs2_DE [4:0] $end
    $var wire  1 &! rs2_read_DE $end
    $var wire 32 } sxt_imm_DE [31:0] $end
    $var wire  4 .! type_I_AGEX [3:0] $end
    $var wire  4 { type_I_DE [3:0] $end
    $var wire  4 /! type_I_MEM [3:0] $end
    $var wire  4 0! type_I_WB [3:0] $end
    $var wire  3 | type_immediate_DE [2:0] $end
    $var wire  4 )! wcsrno_WB [3:0] $end
    $var wire  1 *! wr_csr_WB $end
    $var wire  1 $! wr_reg_DE $end
    $var wire  1 ~ wr_reg_WB $end
    $var wire  5 '! wregno_WB [4:0] $end
    $scope module unnamedblk1 $end
     $var wire  1 2! is_type_I_AGEX_Valid $end
     $var wire  1 3! is_type_I_MEM_Valid $end
     $var wire  1 4! is_type_I_WB_Valid $end
    $upscope $end
   $upscope $end
   $scope module my_FE_stage $end
    $var wire 132 = FE_latch [131:0] $end
    $var wire 132 ' FE_latch_contents [131:0] $end
    $var wire 132 = FE_latch_out [131:0] $end
    $var wire 32 $ PC_FE_latch [31:0] $end
    $var wire  1 5! br_cond_AGEX_in_FE $end
    $var wire  1 |! clk $end
    $var wire 33 V from_AGEX_to_FE [32:0] $end
    $var wire  1 U from_DE_to_FE [0:0] $end
    $var wire  1 `" from_MEM_to_FE [0:0] $end
    $var wire  1 a" from_WB_to_FE [0:0] $end
    $var wire 32 % inst_FE [31:0] $end
    $var wire 32 e" inst_count_AGEX [31:0] $end
    $var wire 32 , inst_count_FE [31:0] $end
    $var wire 32 6! newpc_AGEX [31:0] $end
    $var wire 32 & pcplus_FE [31:0] $end
    $var wire  1 }! reset $end
    $var wire  1 U stall_pipe_FE $end
   $upscope $end
   $scope module my_MEM_stage $end
    $var wire 148 P MEM_latch [147:0] $end
    $var wire 148 K! MEM_latch_contents [147:0] $end
    $var wire 148 P MEM_latch_out [147:0] $end
    $var wire 32 :! PC_MEM [31:0] $end
    $var wire 32 Q! aluout_MEM [31:0] $end
    $var wire  4 ;! bus_canary_MEM [3:0] $end
    $var wire  1 |! clk $end
    $var wire 181 J from_AGEX_latch [180:0] $end
    $var wire  1 b" from_MEM_to_AGEX [0:0] $end
    $var wire  9 Y from_MEM_to_DE [8:0] $end
    $var wire  1 `" from_MEM_to_FE [0:0] $end
    $var wire  1 d" from_WB_to_MEM [0:0] $end
    $var wire 32 9! inst_MEM [31:0] $end
    $var wire 32 8! inst_count_MEM [31:0] $end
    $var wire 32 <! memaddr_MEM [31:0] $end
    $var wire  6 7! op_I_MEM [5:0] $end
    $var wire  5 ?! rd_MEM [4:0] $end
    $var wire 32 P! rd_val_MEM [31:0] $end
    $var wire  1 }! reset $end
    $var wire 32 <! temp_aluout_MEM [31:0] $end
    $var wire  4 A! type_I_MEM [3:0] $end
    $var wire  1 >! wr_mem_MEM $end
    $var wire  1 @! wr_reg_MEM $end
    $var wire 32 =! wr_val_MEM [31:0] $end
   $upscope $end
   $scope module my_WB_stage $end
    $var wire 32 D! PC_WB [31:0] $end
    $var wire 32 @" WB_counters[0] [31:0] $end
    $var wire 32 J" WB_counters[10] [31:0] $end
    $var wire 32 K" WB_counters[11] [31:0] $end
    $var wire 32 L" WB_counters[12] [31:0] $end
    $var wire 32 M" WB_counters[13] [31:0] $end
    $var wire 32 N" WB_counters[14] [31:0] $end
    $var wire 32 O" WB_counters[15] [31:0] $end
    $var wire 32 P" WB_counters[16] [31:0] $end
    $var wire 32 Q" WB_counters[17] [31:0] $end
    $var wire 32 R" WB_counters[18] [31:0] $end
    $var wire 32 S" WB_counters[19] [31:0] $end
    $var wire 32 A" WB_counters[1] [31:0] $end
    $var wire 32 T" WB_counters[20] [31:0] $end
    $var wire 32 U" WB_counters[21] [31:0] $end
    $var wire 32 V" WB_counters[22] [31:0] $end
    $var wire 32 W" WB_counters[23] [31:0] $end
    $var wire 32 X" WB_counters[24] [31:0] $end
    $var wire 32 Y" WB_counters[25] [31:0] $end
    $var wire 32 Z" WB_counters[26] [31:0] $end
    $var wire 32 [" WB_counters[27] [31:0] $end
    $var wire 32 \" WB_counters[28] [31:0] $end
    $var wire 32 ]" WB_counters[29] [31:0] $end
    $var wire 32 B" WB_counters[2] [31:0] $end
    $var wire 32 ^" WB_counters[30] [31:0] $end
    $var wire 32 _" WB_counters[31] [31:0] $end
    $var wire 32 C" WB_counters[3] [31:0] $end
    $var wire 32 D" WB_counters[4] [31:0] $end
    $var wire 32 E" WB_counters[5] [31:0] $end
    $var wire 32 F" WB_counters[6] [31:0] $end
    $var wire 32 G" WB_counters[7] [31:0] $end
    $var wire 32 H" WB_counters[8] [31:0] $end
    $var wire 32 I" WB_counters[9] [31:0] $end
    $var wire 32 J! aluout_WB [31:0] $end
    $var wire  4 F! bus_canary_WB [3:0] $end
    $var wire  1 |! clk $end
    $var wire 148 P from_MEM_latch [147:0] $end
    $var wire  1 c" from_WB_to_AGEX [0:0] $end
    $var wire 52 Z from_WB_to_DE [51:0] $end
    $var wire  1 a" from_WB_to_FE [0:0] $end
    $var wire  1 d" from_WB_to_MEM [0:0] $end
    $var wire 32 C! inst_WB [31:0] $end
    $var wire 32 E! inst_count_WB [31:0] $end
    $var wire 32 ~! last_WB_value[0] [31:0] $end
    $var wire 32 *" last_WB_value[10] [31:0] $end
    $var wire 32 +" last_WB_value[11] [31:0] $end
    $var wire 32 ," last_WB_value[12] [31:0] $end
    $var wire 32 -" last_WB_value[13] [31:0] $end
    $var wire 32 ." last_WB_value[14] [31:0] $end
    $var wire 32 /" last_WB_value[15] [31:0] $end
    $var wire 32 0" last_WB_value[16] [31:0] $end
    $var wire 32 1" last_WB_value[17] [31:0] $end
    $var wire 32 2" last_WB_value[18] [31:0] $end
    $var wire 32 3" last_WB_value[19] [31:0] $end
    $var wire 32 !" last_WB_value[1] [31:0] $end
    $var wire 32 4" last_WB_value[20] [31:0] $end
    $var wire 32 5" last_WB_value[21] [31:0] $end
    $var wire 32 6" last_WB_value[22] [31:0] $end
    $var wire 32 7" last_WB_value[23] [31:0] $end
    $var wire 32 8" last_WB_value[24] [31:0] $end
    $var wire 32 9" last_WB_value[25] [31:0] $end
    $var wire 32 :" last_WB_value[26] [31:0] $end
    $var wire 32 ;" last_WB_value[27] [31:0] $end
    $var wire 32 <" last_WB_value[28] [31:0] $end
    $var wire 32 =" last_WB_value[29] [31:0] $end
    $var wire 32 "" last_WB_value[2] [31:0] $end
    $var wire 32 >" last_WB_value[30] [31:0] $end
    $var wire 32 ?" last_WB_value[31] [31:0] $end
    $var wire 32 #" last_WB_value[3] [31:0] $end
    $var wire 32 $" last_WB_value[4] [31:0] $end
    $var wire 32 %" last_WB_value[5] [31:0] $end
    $var wire 32 &" last_WB_value[6] [31:0] $end
    $var wire 32 '" last_WB_value[7] [31:0] $end
    $var wire 32 (" last_WB_value[8] [31:0] $end
    $var wire 32 )" last_WB_value[9] [31:0] $end
    $var wire  6 B! op_I_WB [5:0] $end
    $var wire  5 I! rd_WB [4:0] $end
    $var wire 32 J! regval_WB [31:0] $end
    $var wire  1 }! reset $end
    $var wire  4 G! type_I_WB [3:0] $end
    $var wire  4 f" wcsrno_WB [3:0] $end
    $var wire  1 g" wr_csr_WB $end
    $var wire  1 H! wr_reg_WB $end
    $var wire  5 I! wregno_WB [4:0] $end
   $upscope $end
  $upscope $end
 $upscope $end
$enddefinitions $end


#0
b00000000000000000000000000000000 #
b00000000000000000000000000000000 $
b00000000000000000000000000000000 %
b00000000000000000000000000000100 &
b000000000000000000000000000000000000000000000000000000000000000000000000000000000000000000000100000000000000000000000000000000001111 '
b00000000000000000000000000000000 ,
b00000000000000000000000000000000 -
b00000000000000000000000000000000 .
b00000000000000000000000000000000 /
b00000000000000000000000000000000 0
b00000000000000000000000000000000 1
b00000000000000000000000000000000 2
b00000000000000000000000000000000 3
b00000000000000000000000000000000 4
b00000000000000000000000000000000 5
b00000000000000000000000000000000 6
b00000000000000000000000000000000 7
b00000000000000000000000000000000 8
b00000000000000000000000000000000 9
b00000000000000000000000000000000 :
b00000000000000000000000000000000 ;
b00000000000000000000000000000000 <
b000000000000000000000000000000000000000000000000000000000000000000000000000000000000000000000000000000000000000000000000000000000000 =
b0000000000000000000000000000000000000000000000000000000000000000000000000000000000000000000000000000000000000000000000000000000000000000000000000000000000000000000000000000000000000000000000000000000000000000000000000000000000000000000000000000 B
b0000000000000000000000000000000000000000000000000000000000000000000000000000000000000000000000000000000000000000000000000000000000000000000000000000000000000000000000000000000000000 J
b0000000000000000000000000000000000000000000000000000000000000000000000000000000000000000000000000000000000000000000000000000000000000000000000000000 P
0U
b000000000000000000000000000000000 V
b0000000000 X
b000000000 Y
b0000000000000000000000000000000000000000000000000000 Z
b0000000000000000000000000000000000000000000000000000000000000000000000000000000000000000000000000000000000000000000000000000000000000000000000000000000000000000000000000000000000000 \
b00000000000000000000000000000000 b
b00000000000000000000000000000000 c
b00000000000000000000000000000000 d
b00000000000000000000000000000000 e
b000000 f
0g
b0000 h
b00000000000000000000000000000000 i
b00000000000000000000000000000000 j
b00000000000000000000000000000000 k
b00000 l
0m
b0000 n
b00000000000000000000000000000000 o
b00000000000000000000000000000000 p
0q
b00000000000000000000000000000000 r
b00000000000000000000000000000000 s
b00000000000000000000000000000000 t
b00000000000000000000000000000000 u
b0000 v
b000 w
b0000000 x
b0000000 y
b100101 z
b0010 {
b001 |
b00000000000000000000000000000000 }
0~
b00000 !!
b00000 "!
b00000 #!
0$!
1%!
0&!
b00000 '!
b00000000000000000000000000000000 (!
b0000 )!
0*!
b00000 +!
b00000 ,!
b00000 -!
b0000 .!
b0000 /!
b0000 0!
01!
02!
03!
04!
05!
b00000000000000000000000000000000 6!
b000000 7!
b00000000000000000000000000000000 8!
b00000000000000000000000000000000 9!
b00000000000000000000000000000000 :!
b0000 ;!
b00000000000000000000000000000000 <!
b00000000000000000000000000000000 =!
0>!
b00000 ?!
0@!
b0000 A!
b000000 B!
b00000000000000000000000000000000 C!
b00000000000000000000000000000000 D!
b00000000000000000000000000000000 E!
b0000 F!
b0000 G!
0H!
b00000 I!
b00000000000000000000000000000000 J!
b0000000000000000000000000000000000000000000000000000000000000000000000000000000000000000000000000000000000000000000000000000000000000000000000000000 K!
b00000000000000000000000000000000 P!
b00000000000000000000000000000000 Q!
b0000000000000000000000000000000000000000000000000000000000000000000000000000000000000000000000001001010000000000000000000000000000000000000000000000000000000000000000000000000000000000000000000000000000000000000000000000000000000000000000100000 R!
b00000000000000000000000000000000 Z!
b00000000000000000000000000000000 [!
b00000000000000000000000000000000 \!
b00000000000000000000000000000000 ]!
b00000000000000000000000000000000 ^!
b00000000000000000000000000000000 _!
b00000000000000000000000000000000 `!
b00000000000000000000000000000000 a!
b00000000000000000000000000000000 b!
b00000000000000000000000000000000 c!
b00000000000000000000000000000000 d!
b00000000000000000000000000000000 e!
b00000000000000000000000000000000 f!
b00000000000000000000000000000000 g!
b00000000000000000000000000000000 h!
b00000000000000000000000000000000 i!
b00000000000000000000000000000000 j!
b00000000000000000000000000000000 k!
b00000000000000000000000000000000 l!
b00000000000000000000000000000000 m!
b00000000000000000000000000000000 n!
b00000000000000000000000000000000 o!
b00000000000000000000000000000000 p!
b00000000000000000000000000000000 q!
b00000000000000000000000000000000 r!
b00000000000000000000000000000000 s!
b00000000000000000000000000000000 t!
b00000000000000000000000000000000 u!
b00000000000000000000000000000000 v!
b00000000000000000000000000000000 w!
b00000000000000000000000000000000 x!
b00000000000000000000000000000000 y!
b00000000000000000000000000000000 z!
b00000000000000000000000000000000 {!
0|!
0}!
b00000000000000000000000000000000 ~!
b00000000000000000000000000000000 !"
b00000000000000000000000000000000 ""
b00000000000000000000000000000000 #"
b00000000000000000000000000000000 $"
b00000000000000000000000000000000 %"
b00000000000000000000000000000000 &"
b00000000000000000000000000000000 '"
b00000000000000000000000000000000 ("
b00000000000000000000000000000000 )"
b00000000000000000000000000000000 *"
b00000000000000000000000000000000 +"
b00000000000000000000000000000000 ,"
b00000000000000000000000000000000 -"
b00000000000000000000000000000000 ."
b00000000000000000000000000000000 /"
b00000000000000000000000000000000 0"
b00000000000000000000000000000000 1"
b00000000000000000000000000000000 2"
b00000000000000000000000000000000 3"
b00000000000000000000000000000000 4"
b00000000000000000000000000000000 5"
b00000000000000000000000000000000 6"
b00000000000000000000000000000000 7"
b00000000000000000000000000000000 8"
b00000000000000000000000000000000 9"
b00000000000000000000000000000000 :"
b00000000000000000000000000000000 ;"
b00000000000000000000000000000000 <"
b00000000000000000000000000000000 ="
b00000000000000000000000000000000 >"
b00000000000000000000000000000000 ?"
b00000000000000000000000000000000 @"
b00000000000000000000000000000000 A"
b00000000000000000000000000000000 B"
b00000000000000000000000000000000 C"
b00000000000000000000000000000000 D"
b00000000000000000000000000000000 E"
b00000000000000000000000000000000 F"
b00000000000000000000000000000000 G"
b00000000000000000000000000000000 H"
b00000000000000000000000000000000 I"
b00000000000000000000000000000000 J"
b00000000000000000000000000000000 K"
b00000000000000000000000000000000 L"
b00000000000000000000000000000000 M"
b00000000000000000000000000000000 N"
b00000000000000000000000000000000 O"
b00000000000000000000000000000000 P"
b00000000000000000000000000000000 Q"
b00000000000000000000000000000000 R"
b00000000000000000000000000000000 S"
b00000000000000000000000000000000 T"
b00000000000000000000000000000000 U"
b00000000000000000000000000000000 V"
b00000000000000000000000000000000 W"
b00000000000000000000000000000000 X"
b00000000000000000000000000000000 Y"
b00000000000000000000000000000000 Z"
b00000000000000000000000000000000 ["
b00000000000000000000000000000000 \"
b00000000000000000000000000000000 ]"
b00000000000000000000000000000000 ^"
b00000000000000000000000000000000 _"
0`"
0a"
0b"
0c"
0d"
b00000000000000000000000000000000 e"
b0000 f"
0g"
#1
b00000000000000000000000000000001 #
b00000000000000000000000000000100 $
b00000000000000000000000000001000 &
b000000000000000000000000000000000000000000000000000000000000010000000000000000000000000000001000000000000000000000000000000000011111 '
b00000000000000000000000000000001 ,
b000000000000000000000000000000000000000000000000000000000000000000000000000000000000000000000100000000000000000000000000000000001111 =
b00000000000000000000000000000100 t
b1111 v
b0000000000000000000000000000000000000000000000000000000000000000000000000000000000000000000001001001010000000000000000000000000000000000000000000000000000000000000000000000000000000000000000000000000000000000000000000000000000000000000000101111 R!
1|!
#2
b00000000000000000000000000000000 #
b00000000000000000000001000000000 $
b00000000000000000000000010010011 %
b00000000000000000000001000000100 &
b000000000000000000000000100100110000000000000000000000100000000000000000000000000000001000000100000000000000000000000000000000011111 '
b000000000000000000000000000000000000000000000000000000000000000000000000000000000000000000000000000000000000000000000000000000000000 =
b00000000000000000000000000000000 t
b0000 v
b0000000000000000000000000000000000000000000000000000000000000000000000000000000000000000000000001001010000000000000000000000000000000000000000000000000000000000000000000000000000000000000000000000000000000000000000000000000000000000000000100000 R!
0|!
1}!
#3
1|!
#4
0|!
#5
1|!
#6
0|!
#7
1|!
#8
0|!
#9
1|!
#10
#11
0|!
#12
1|!
#13
0|!
#14
1|!
#15
0|!
#16
1|!
#17
0|!
#18
1|!
#19
0|!
#20
#21
1|!
#22
0|!
#23
1|!
#24
0|!
#25
1|!
#26
0|!
#27
1|!
#28
0|!
#29
1|!
#30
#31
0|!
#32
1|!
#33
0|!
#34
1|!
#35
0|!
#36
1|!
#37
0|!
#38
1|!
#39
0|!
#40
#41
1|!
#42
0|!
#43
1|!
#44
0|!
#45
1|!
#46
0|!
#47
1|!
#48
0|!
#49
1|!
#50
#51
0|!
#52
1|!
#53
0|!
#54
1|!
#55
0|!
#56
1|!
#57
0|!
#58
1|!
#59
0|!
#60
#61
1|!
#62
0|!
#63
1|!
#64
0|!
#65
1|!
#66
0|!
#67
1|!
#68
0|!
#69
1|!
#70
#71
0|!
#72
1|!
#73
0|!
#74
1|!
#75
0|!
#76
1|!
#77
0|!
#78
1|!
#79
0|!
#80
#81
1|!
#82
0|!
#83
1|!
#84
0|!
#85
1|!
#86
0|!
#87
1|!
#88
0|!
#89
1|!
#90
#91
0|!
#92
1|!
#93
0|!
#94
1|!
#95
0|!
#96
1|!
#97
0|!
#98
1|!
#99
0|!
#100
0}!
#101
b00000000000000000000000000000001 #
b00000000000000000000001000000100 $
b00000000000000000000000100010011 %
b00000000000000000000001000001000 &
b000000000000000000000001000100110000000000000000000000100000010000000000000000000000001000001000000000000000000000000000000000101111 '
b00000000000000000000000000000010 ,
b000000000000000000000000100100110000000000000000000000100000000000000000000000000000001000000100000000000000000000000000000000011111 =
b00000000000000000000000010010011 r
b00000000000000000000001000000000 s
b00000000000000000000001000000100 t
b00000000000000000000000000000001 u
b1111 v
b0010011 y
b001100 z
b00001 #!
1$!
b0000000000000000000000001001001100000000000000000000001000000000000000000000000000000010000001000011000000000000000000000000000000000100000000000000000000000000000000000000000000000000000000000000000000000000000000000000000000000000001100101111 R!
1|!
#102
0|!
#103
b00000000000000000000000000000010 #
b00000000000000000000001000001000 $
b00000000000000000000000110010011 %
b00000000000000000000001000001100 &
b000000000000000000000001100100110000000000000000000000100000100000000000000000000000001000001100000000000000000000000000000000111111 '
b00000000000000000000000000000011 ,
b000000000000000000000001000100110000000000000000000000100000010000000000000000000000001000001000000000000000000000000000000000101111 =
b0000000000000000000000001001001100000000000000000000001000000000000000000000000000000010000001000011000000000000000000000000000000000100000000000000000000000000000000000000000000000000000000000000000000000000000000000000000000000000001100101111 B
b0000100100 X
b0000000000000000000000001001001100000000000000000000001000000000001100000000000000000000000000000000010000000000000000000000000000000000001100100000000000000000000000000000000001111 \
b00000000000000000000000010010011 b
b00000000000000000000001000000000 c
b00000000000000000000000000000001 d
b00000000000000000000001000000100 e
b001100 f
b1111 h
b00001 l
1m
b0010 n
b00000000000000000000000100010011 r
b00000000000000000000001000000100 s
b00000000000000000000001000001000 t
b00000000000000000000000000000010 u
b00010 #!
b00001 +!
b0010 .!
12!
b0000000000000000000000010001001100000000000000000000001000000100000000000000000000000010000010000011000000000000000000000000000000001000000000000000000000000000000000000000000000000000000000000000000000000000000000000000000000000000010100101111 R!
1|!
#104
0|!
#105
b00000000000000000000000000000011 #
b00000000000000000000001000001100 $
b00000000000000000000001000010011 %
b00000000000000000000001000010000 &
b000000000000000000000010000100110000000000000000000000100000110000000000000000000000001000010000000000000000000000000000000001001111 '
b00000000000000000000000000000100 ,
b000000000000000000000001100100110000000000000000000000100000100000000000000000000000001000001100000000000000000000000000000000111111 =
b0000000000000000000000010001001100000000000000000000001000000100000000000000000000000010000010000011000000000000000000000000000000001000000000000000000000000000000000000000000000000000000000000000000000000000000000000000000000000000010100101111 B
b0000000000000000000000001001001100000000000000000000001000000000001100000000000000000000000000000000010000000000000000000000000000000000001100100000000000000000000000000000000001111 J
b0001000100 X
b000010010 Y
b0000000000000000000000010001001100000000000000000000001000000100001100000000000000000000000000000000100000000000000000000000000000000000010100100000000000000000000000000000000001111 \
b00000000000000000000000100010011 b
b00000000000000000000001000000100 c
b00000000000000000000000000000010 d
b00000000000000000000001000001000 e
b00010 l
b00000000000000000000000110010011 r
b00000000000000000000001000001000 s
b00000000000000000000001000001100 t
b00000000000000000000000000000011 u
b00011 #!
b00010 +!
b00001 ,!
b0010 /!
13!
b001100 7!
b00000000000000000000000000000001 8!
b00000000000000000000000010010011 9!
b00000000000000000000001000000000 :!
b1111 ;!
b00001 ?!
1@!
b0010 A!
b0000000000000000000000001001001100000000000000000000001000000000001100000000000000000000000000000000010000000000000000000000000000000000001100101111 K!
b0000000000000000000000011001001100000000000000000000001000001000000000000000000000000010000011000011000000000000000000000000000000001100000000000000000000000000000000000000000000000000000000000000000000000000000000000000000000000000011100101111 R!
1|!
#106
0|!
#107
b00000000000000000000000000000100 #
b00000000000000000000001000010000 $
b00000000000000000000001010010011 %
b00000000000000000000001000010100 &
b000000000000000000000010100100110000000000000000000000100001000000000000000000000000001000010100000000000000000000000000000001011111 '
b00000000000000000000000000000101 ,
b000000000000000000000010000100110000000000000000000000100000110000000000000000000000001000010000000000000000000000000000000001001111 =
b0000000000000000000000011001001100000000000000000000001000001000000000000000000000000010000011000011000000000000000000000000000000001100000000000000000000000000000000000000000000000000000000000000000000000000000000000000000000000000011100101111 B
b0000000000000000000000010001001100000000000000000000001000000100001100000000000000000000000000000000100000000000000000000000000000000000010100100000000000000000000000000000000001111 J
b0000000000000000000000001001001100000000000000000000001000000000001100000000000000000000000000000000010000000000000000000000000000000000001100101111 P
b0001100100 X
b000100010 Y
b1000010000000000000000000000000000000000000000010010 Z
b0000000000000000000000011001001100000000000000000000001000001000001100000000000000000000000000000000110000000000000000000000000000000000011100100000000000000000000000000000000001111 \
b00000000000000000000000110010011 b
b00000000000000000000001000001000 c
b00000000000000000000000000000011 d
b00000000000000000000001000001100 e
b00011 l
b00000000000000000000001000010011 r
b00000000000000000000001000001100 s
b00000000000000000000001000010000 t
b00000000000000000000000000000100 u
1~
b00100 #!
b00001 '!
b00011 +!
b00010 ,!
b00001 -!
b0010 0!
14!
b00000000000000000000000000000010 8!
b00000000000000000000000100010011 9!
b00000000000000000000001000000100 :!
b00010 ?!
b001100 B!
b00000000000000000000000010010011 C!
b00000000000000000000001000000000 D!
b00000000000000000000000000000001 E!
b1111 F!
b0010 G!
1H!
b00001 I!
b0000000000000000000000010001001100000000000000000000001000000100001100000000000000000000000000000000100000000000000000000000000000000000010100101111 K!
b0000000000000000000000100001001100000000000000000000001000001100000000000000000000000010000100000011000000000000000000000000000000010000000000000000000000000000000000000000000000000000000000000000000000000000000000000000000000000000100100101111 R!
1|!
#108
0|!
#109
b00000000000000000000000000000101 #
b00000000000000000000001000010100 $
b00000000000000000000001100010011 %
b00000000000000000000001000011000 &
b000000000000000000000011000100110000000000000000000000100001010000000000000000000000001000011000000000000000000000000000000001101111 '
b00000000000000000000000000000110 ,
b000000000000000000000010100100110000000000000000000000100001000000000000000000000000001000010100000000000000000000000000000001011111 =
b0000000000000000000000100001001100000000000000000000001000001100000000000000000000000010000100000011000000000000000000000000000000010000000000000000000000000000000000000000000000000000000000000000000000000000000000000000000000000000100100101111 B
b0000000000000000000000011001001100000000000000000000001000001000001100000000000000000000000000000000110000000000000000000000000000000000011100100000000000000000000000000000000001111 J
b0000000000000000000000010001001100000000000000000000001000000100001100000000000000000000000000000000100000000000000000000000000000000000010100101111 P
b0010000100 X
b000110010 Y
b1000100000000000000000000000000000000000000000100010 Z
b0000000000000000000000100001001100000000000000000000001000001100001100000000000000000000000000000001000000000000000000000000000000000000100100100000000000000000000000000000000001111 \
b00000000000000000000001000010011 b
b00000000000000000000001000001100 c
b00000000000000000000000000000100 d
b00000000000000000000001000010000 e
b00100 l
b00000000000000000000001010010011 r
b00000000000000000000001000010000 s
b00000000000000000000001000010100 t
b00000000000000000000000000000101 u
b00101 #!
b00010 '!
b00100 +!
b00011 ,!
b00010 -!
b00000000000000000000000000000011 8!
b00000000000000000000000110010011 9!
b00000000000000000000001000001000 :!
b00011 ?!
b00000000000000000000000100010011 C!
b00000000000000000000001000000100 D!
b00000000000000000000000000000010 E!
b00010 I!
b0000000000000000000000011001001100000000000000000000001000001000001100000000000000000000000000000000110000000000000000000000000000000000011100101111 K!
b0000000000000000000000101001001100000000000000000000001000010000000000000000000000000010000101000011000000000000000000000000000000010100000000000000000000000000000000000000000000000000000000000000000000000000000000000000000000000000101100101111 R!
1|!
b00000000000000000000001000000000 A"
b00000000000000000000000010010011 B"
b00000000000000000000000000000001 C"
b00000000000000000000000000000001 E"
b00000000000000000000000000001100 F"
b00000000000000000000000000000001 G"
#110
